Chapter 6 Practice Problems | R Reference Manual
…
6.1.1 1 and 2

Create a new column called Birth_Month which has only the month portion of Birth_Month_Year. Create a new column called Birth_Year which has only the year portion of Birth_Month_Year.

data_alt <- data %>%
  separate_wider_delim(Birth_Month_Year, delim=",", names = c("Birth_Month", "Birth_Year"))

print(data_alt)

## # A tibble: 96 × 8
##    Birth_Month Birth_Year State         Country Languages When_Hear_About_Prog…¹
##    <chr>       <chr>      <chr>         <chr>   <chr>     <chr>                 
##  1 December    " 1999"    North Caroli… United… English   1-2 years             
##  2 7           " 1998"    Virginia      United… English,… 1-2 years             
##  3 April       " 1999"    North Caroli… United… English   3-5 years             
##  4 November    " 1999"    California    United… English   Less than one year ago
##  5 June        " 1991"    Kentucky      USA     English   1-2 years             
##  6 December    " 1999"    North Caroli… United… English   Less than one year ago
##  7 May         " 2000"    Texas         South … English,… Less than one year ago
##  8 January     " 1998"    Tennessee     South … English,… 1-2 years             
##  9 October     " 1998"    NC            USA     English,… 3-5 years             
## 10 November    " 2001"    Illinois      US      English   1-2 years             
## # ℹ 86 more rows
## # ℹ abbreviated name: ¹​When_Hear_About_Program
## # ℹ 2 more variables: How_Hear_About_Program <chr>, Hobbies <chr>
…
data_alt2 <- data_alt %>%
  
  mutate(Birth_Month = case_when(
    Birth_Month == "7" ~ "July",
    Birth_Month == "11" ~ "November",
    Birth_Month == "9" ~ "September",
    .default = Birth_Month)) %>%
  
  mutate(Birth_Month = str_to_title(str_trim(Birth_Month))) %>%
  
  mutate(Birth_Year = as.numeric(str_trim(Birth_Year)))

print(data_alt2)

## # A tibble: 96 × 8
##    Birth_Month Birth_Year State         Country Languages When_Hear_About_Prog…¹
##    <chr>            <dbl> <chr>         <chr>   <chr>     <chr>                 
##  1 December          1999 North Caroli… United… English   1-2 years             
##  2 July              1998 Virginia      United… English,… 1-2 years             
##  3 April             1999 North Caroli… United… English   3-5 years             
##  4 November          1999 California    United… English   Less than one year ago
##  5 June              1991 Kentucky      USA     English   1-2 years             
##  6 December          1999 North Caroli… United… English   Less than one year ago
##  7 May               2000 Texas         South … English,… Less than one year ago
##  8 January           1998 Tennessee     South … English,… 1-2 years             
##  9 October           1998 NC            USA     English,… 3-5 years             
## 10 November          2001 Illinois      US      English   1-2 years             
## # ℹ 86 more rows
## # ℹ abbreviated name: ¹​When_Hear_About_Program
## # ℹ 2 more variables: How_Hear_About_Program <chr>, Hobbies <chr>
…
6.1.3 6 and 7

data_alt3 <- data_alt2 %>%
  mutate(State = ifelse(State %in% state.name,State,NA))

print(data_alt3)

## # A tibble: 96 × 8
##    Birth_Month Birth_Year State         Country Languages When_Hear_About_Prog…¹
##    <chr>            <dbl> <chr>         <chr>   <chr>     <chr>                 
##  1 December          1999 North Caroli… United… English   1-2 years             
##  2 July              1998 Virginia      United… English,… 1-2 years             
##  3 April             1999 North Caroli… United… English   3-5 years             
##  4 November          1999 California    United… English   Less than one year ago
##  5 June              1991 Kentucky      USA     English   1-2 years             
##  6 December          1999 North Caroli… United… English   Less than one year ago
##  7 May               2000 Texas         South … English,… Less than one year ago
##  8 January           1998 Tennessee     South … English,… 1-2 years             
##  9 October           1998 <NA>          USA     English,… 3-5 years             
## 10 November          2001 Illinois      US      English   1-2 years             
## # ℹ 86 more rows
## # ℹ abbreviated name: ¹​When_Hear_About_Program
## # ℹ 2 more variables: How_Hear_About_Program <chr>, Hobbies <chr>

6.1.4 9

data_alt4 <- data_alt3 %>%
  rowwise() %>%
  mutate(How_Hear_About_Program = substring(How_Hear_About_Program, 4, nchar(How_Hear_About_Program))) %>%
           ungroup()

print(data_alt4)

## # A tibble: 96 × 8
##    Birth_Month Birth_Year State         Country Languages When_Hear_About_Prog…¹
##    <chr>            <dbl> <chr>         <chr>   <chr>     <chr>                 
##  1 December          1999 North Caroli… United… English   1-2 years             
##  2 July              1998 Virginia      United… English,… 1-2 years             
##  3 April             1999 North Caroli… United… English   3-5 years             
##  4 November          1999 California    United… English   Less than one year ago
##  5 June              1991 Kentucky      USA     English   1-2 years             
##  6 December          1999 North Caroli… United… English   Less than one year ago
##  7 May               2000 Texas         South … English,… Less than one year ago
##  8 January           1998 Tennessee     South … English,… 1-2 years             
##  9 October           1998 <NA>          USA     English,… 3-5 years             
## 10 November          2001 Illinois      US      English   1-2 years             
## # ℹ 86 more rows
## # ℹ abbreviated name: ¹​When_Hear_About_Program
## # ℹ 2 more variables: How_Hear_About_Program <chr>, Hobbies <chr>
…
