Chapter 2 Tidyverse | R Reference Manual
…
## # A tibble: 6 × 4
##   country      year  cases population
##   <chr>       <dbl>  <dbl>      <dbl>
## 1 Afghanistan  1999    745   19987071
## 2 Afghanistan  2000   2666   20595360
## 3 Brazil       1999  37737  172006362
## 4 Brazil       2000  80488  174504898
## 5 China        1999 212258  127295272
## 6 China        2000 213766 1280428583

2.3 Data Manipulation

print(starwars)

## # A tibble: 87 × 14
##    name     height  mass hair_color skin_color eye_color birth_year sex   gender
##    <chr>     <int> <dbl> <chr>      <chr>      <chr>          <dbl> <chr> <chr> 
##  1 Luke Sk…    172    77 blond      fair       blue            19   male  mascu…
##  2 C-3PO       167    75 <NA>       gold       yellow         112   none  mascu…
##  3 R2-D2        96    32 <NA>       white, bl… red             33   none  mascu…
##  4 Darth V…    202   136 none       white      yellow          41.9 male  mascu…
##  5 Leia Or…    150    49 brown      light      brown           19   fema… femin…
##  6 Owen La…    178   120 brown, gr… light      blue            52   male  mascu…
##  7 Beru Wh…    165    75 brown      light      blue            47   fema… femin…
##  8 R5-D4        97    32 <NA>       white, red red             NA   none  mascu…
##  9 Biggs D…    183    84 black      light      brown           24   male  mascu…
## 10 Obi-Wan…    182    77 auburn, w… fair       blue-gray       57   male  mascu…
## # ℹ 77 more rows
## # ℹ 5 more variables: homeworld <chr>, species <chr>, films <list>,
## #   vehicles <list>, starships <list>
…
arrange(): change row order

print( starwars %>% arrange( height, mass ) ) # Sort rows by height, within height by mass

## # A tibble: 87 × 14
##    name     height  mass hair_color skin_color eye_color birth_year sex   gender
##    <chr>     <int> <dbl> <chr>      <chr>      <chr>          <dbl> <chr> <chr> 
##  1 Yoda         66    17 white      green      brown            896 male  mascu…
##  2 Ratts T…     79    15 none       grey, blue unknown           NA male  mascu…
##  3 Wicket …     88    20 brown      brown      brown              8 male  mascu…
##  4 Dud Bolt     94    45 none       blue, grey yellow            NA male  mascu…
##  5 R2-D2        96    32 <NA>       white, bl… red               33 none  mascu…
##  6 R4-P17       96    NA none       silver, r… red, blue         NA none  femin…
##  7 R5-D4        97    32 <NA>       white, red red               NA none  mascu…
##  8 Sebulba     112    40 none       grey, red  orange            NA male  mascu…
##  9 Gasgano     122    NA none       white, bl… black             NA male  mascu…
## 10 Watto       137    NA black      blue, grey yellow            NA male  mascu…
## # ℹ 77 more rows
## # ℹ 5 more variables: homeworld <chr>, species <chr>, films <list>,
## #   vehicles <list>, starships <list>

2.3.2 Columns

select(): chooses a subset of columns

print( starwars %>% select( name, hair_color, eye_color ) ) # Select name, hair colour, eye colour columns

## # A tibble: 87 × 3
##    name               hair_color    eye_color
##    <chr>              <chr>         <chr>    
##  1 Luke Skywalker     blond         blue     
##  2 C-3PO              <NA>          yellow   
##  3 R2-D2              <NA>          red      
##  4 Darth Vader        none          yellow   
##  5 Leia Organa        brown         brown    
##  6 Owen Lars          brown, grey   blue     
##  7 Beru Whitesun Lars brown         blue     
##  8 R5-D4              <NA>          red      
##  9 Biggs Darklighter  black         brown    
## 10 Obi-Wan Kenobi     auburn, white blue-gray
## # ℹ 77 more rows

print( starwars %>% select( name:eye_color ) ) # Select columns from name to eye colour

## # A tibble: 87 × 6
##    name               height  mass hair_color    skin_color  eye_color
##    <chr>               <int> <dbl> <chr>         <chr>       <chr>    
##  1 Luke Skywalker        172    77 blond         fair        blue     
##  2 C-3PO                 167    75 <NA>          gold        yellow   
##  3 R2-D2                  96    32 <NA>          white, blue red      
##  4 Darth Vader           202   136 none          white       yellow   
##  5 Leia Organa           150    49 brown         light       brown    
##  6 Owen Lars             178   120 brown, grey   light       blue     
##  7 Beru Whitesun Lars    165    75 brown         light       blue     
##  8 R5-D4                  97    32 <NA>          white, red  red      
##  9 Biggs Darklighter     183    84 black         light       brown    
## 10 Obi-Wan Kenobi        182    77 auburn, white fair        blue-gray
## # ℹ 77 more rows

print( starwars %>% select( ends_with( "color" ) ) ) # Selects columns whose name ends w/color

## # A tibble: 87 × 3
##    hair_color    skin_color  eye_color
##    <chr>         <chr>       <chr>    
##  1 blond         fair        blue     
##  2 <NA>          gold        yellow   
##  3 <NA>          white, blue red      
##  4 none          white       yellow   
##  5 brown         light       brown    
##  6 brown, grey   light       blue     
##  7 brown         light       blue     
##  8 <NA>          white, red  red      
##  9 black         light       brown    
## 10 auburn, white fair        blue-gray
## # ℹ 77 more rows

rename(): Renames a column.

print( starwars %>% rename( "Home.World"="homeworld" ) ) # Rename homeworld column to Home.World

## # A tibble: 87 × 14
##    name     height  mass hair_color skin_color eye_color birth_year sex   gender
##    <chr>     <int> <dbl> <chr>      <chr>      <chr>          <dbl> <chr> <chr> 
##  1 Luke Sk…    172    77 blond      fair       blue            19   male  mascu…
##  2 C-3PO       167    75 <NA>       gold       yellow         112   none  mascu…
##  3 R2-D2        96    32 <NA>       white, bl… red             33   none  mascu…
##  4 Darth V…    202   136 none       white      yellow          41.9 male  mascu…
##  5 Leia Or…    150    49 brown      light      brown           19   fema… femin…
##  6 Owen La…    178   120 brown, gr… light      blue            52   male  mascu…
##  7 Beru Wh…    165    75 brown      light      blue            47   fema… femin…
##  8 R5-D4        97    32 <NA>       white, red red             NA   none  mascu…
##  9 Biggs D…    183    84 black      light      brown           24   male  mascu…
## 10 Obi-Wan…    182    77 auburn, w… fair       blue-gray       57   male  mascu…
## # ℹ 77 more rows
## # ℹ 5 more variables: Home.World <chr>, species <chr>, films <list>,
## #   vehicles <list>, starships <list>

mutate(): Changes the values of a column or creates new column(s).

print(starwars %>%
mutate( height_m = height / 100, BMI = mass / ( height_m ^ 2 ) ) %>%
select( BMI, height_m, everything() ))

## # A tibble: 87 × 16
##      BMI height_m name   height  mass hair_color skin_color eye_color birth_year
##    <dbl>    <dbl> <chr>   <int> <dbl> <chr>      <chr>      <chr>          <dbl>
##  1  26.0     1.72 Luke …    172    77 blond      fair       blue            19  
##  2  26.9     1.67 C-3PO     167    75 <NA>       gold       yellow         112  
##  3  34.7     0.96 R2-D2      96    32 <NA>       white, bl… red             33  
##  4  33.3     2.02 Darth…    202   136 none       white      yellow          41.9
##  5  21.8     1.5  Leia …    150    49 brown      light      brown           19  
##  6  37.9     1.78 Owen …    178   120 brown, gr… light      blue            52  
##  7  27.5     1.65 Beru …    165    75 brown      light      blue            47  
##  8  34.0     0.97 R5-D4      97    32 <NA>       white, red red             NA  
##  9  25.1     1.83 Biggs…    183    84 black      light      brown           24  
## 10  23.2     1.82 Obi-W…    182    77 auburn, w… fair       blue-gray       57  
## # ℹ 77 more rows
## # ℹ 7 more variables: sex <chr>, gender <chr>, homeworld <chr>, species <chr>,
## #   films <list>, vehicles <list>, starships <list>

relocate(): Changes the order or columns.

print(starwars %>%
relocate( sex:homeworld, .before=height ))

## # A tibble: 87 × 14
##    name      sex   gender homeworld height  mass hair_color skin_color eye_color
##    <chr>     <chr> <chr>  <chr>      <int> <dbl> <chr>      <chr>      <chr>    
##  1 Luke Sky… male  mascu… Tatooine     172    77 blond      fair       blue     
##  2 C-3PO     none  mascu… Tatooine     167    75 <NA>       gold       yellow   
##  3 R2-D2     none  mascu… Naboo         96    32 <NA>       white, bl… red      
##  4 Darth Va… male  mascu… Tatooine     202   136 none       white      yellow   
##  5 Leia Org… fema… femin… Alderaan     150    49 brown      light      brown    
##  6 Owen Lars male  mascu… Tatooine     178   120 brown, gr… light      blue     
##  7 Beru Whi… fema… femin… Tatooine     165    75 brown      light      blue     
##  8 R5-D4     none  mascu… Tatooine      97    32 <NA>       white, red red      
##  9 Biggs Da… male  mascu… Tatooine     183    84 black      light      brown    
## 10 Obi-Wan … male  mascu… Stewjon      182    77 auburn, w… fair       blue-gray
## # ℹ 77 more rows
## # ℹ 5 more variables: birth_year <dbl>, species <chr>, films <list>,
## #   vehicles <list>, starships <list>

2.3.3 Grouping

summarise(): collapse a group of rows into single row

print(starwars %>%
group_by( species, sex ) %>%
dplyr::summarise( height=mean(height, na.rm=TRUE ), mass=mean(mass, na.rm=TRUE) ) %>%
select( height, mass ))

## `summarise()` has grouped output by 'species'. You can override using the `.groups`
## argument.
## Adding missing grouping variables: `species`

## # A tibble: 41 × 3
## # Groups:   species [38]
##    species   height  mass
##    <chr>      <dbl> <dbl>
##  1 Aleena       79   15  
##  2 Besalisk    198  102  
##  3 Cerean      198   82  
##  4 Chagrian    196  NaN  
##  5 Clawdite    168   55  
##  6 Droid       131.  69.8
##  7 Dug         112   40  
##  8 Ewok         88   20  
##  9 Geonosian   183   80  
## 10 Gungan      209.  74  
## # ℹ 31 more rows
…
